Project 1: Exploratory Data Analysis
…
I removed the competition column since all of these skating performances occurred during the 2018 Olympic Winter Games, and it was unnecessary information. I also removed the aspect number column which is the positional order of the aspect within the performance and section. This was not necessary for my analysis since I was mostly concerned with scores and positional number of a performed element or sequence doesn’t affect skating scores. I removed the factor column because this column simply represents the amount by which the component score is multiplied to calculate its final value; this information is not need for my analysis. Lastly, I removed the ref column which just includes a reference to the source PDF. This was also not needed. I separated the programs column, which contained information about the discipline and program type of the skating performance, into two separate columns.

skating_base_value <- skating %>% group_by(nation) %>%
  summarize(mean_base_value=mean(base_value, na.rm=T), 
  sd_base_value=sd(base_value, na.rm=T), n=n(), 
  se_base_value=sd_base_value/sqrt(n), 
  min_base_value=min(base_value, na.rm=T),
  max_base_value=max(base_value, na.rm=T), 
  median_base_value=median(base_value, na.rm=T))

## `summarise()` ungrouping output (override with `.groups` argument)

skating_base_value %>% arrange(desc(max_base_value))

## # A tibble: 32 x 8
##    nation mean_base_value sd_base_value     n se_base_value min_base_value
##    <chr>            <dbl>         <dbl> <int>         <dbl>          <dbl>
##  1 CHN               5.11          2.74   215         0.187           0.66
##  2 OAR               5.30          2.86   394         0.144           0   
##  3 USA               5.52          3.22   390         0.163           0   
##  4 JPN               5.63          3.35   296         0.195           1   
##  5 ISR               5.43          3.34   128         0.295           1.43
##  6 CAN               5.14          2.43   401         0.121           1   
##  7 ESP               5.55          3.37    66         0.415           1   
##  8 GER               4.74          2.14   187         0.156           1   
##  9 LAT               5.02          2.83    42         0.437           2   
## 10 GEO               5.69          3.29    30         0.600           2   
## # … with 22 more rows, and 2 more variables: max_base_value <dbl>,
## #   median_base_value <dbl>

skating_goe <- skating %>% group_by(nation) %>%
  summarize(mean_goe=mean(goe, na.rm=T), 
  sd_goe=sd(goe, na.rm=T), n=n(), 
  se_goe=sd_goe/sqrt(n), 
  min_goe=min(goe, na.rm=T),
  max_goe=max(goe, na.rm=T), 
 median_goe=median(goe, na.rm=T))

## `summarise()` ungrouping output (override with `.groups` argument)

skating_goe %>% arrange(desc(mean_goe))

## # A tibble: 32 x 8
##    nation mean_goe sd_goe     n se_goe min_goe max_goe median_goe
##    <chr>     <dbl>  <dbl> <int>  <dbl>   <dbl>   <dbl>      <dbl>
##  1 GBR       1.08   0.445    24 0.0909   0.19     1.7        1.15
##  2 ESP       1.05   0.950    66 0.117   -2.1      2.71       1.21
##  3 CAN       0.935  1.09    401 0.0542  -4        3.3        1.1 
##  4 POL       0.921  0.244    24 0.0498   0.43     1.26       0.94
##  5 OAR       0.918  1.10    394 0.0552  -4        2.36       1.1 
##  6 ITA       0.850  0.777   289 0.0457  -2.1      2.2        1   
##  7 PRK       0.802  0.385    29 0.0714  -0.290    1.2        0.9 
##  8 FRA       0.726  0.985   163 0.0772  -2.71     3.3        0.69
##  9 USA       0.710  1.09    390 0.0554  -4        2.99       0.9 
## 10 JPN       0.626  1.15    296 0.0666  -4        3          0.9 
## # … with 22 more rows
…
skating_total_segment_score <- skating %>% group_by(name, nation) %>%
  summarize(mean_total_segment_score=mean(total_segment_score, na.rm=T), 
  sd_total_segment_score=sd(total_segment_score, na.rm=T), n=n(), 
  se_total_segment_score=sd_total_segment_score/sqrt(n), 
  min_total_segment_score=min(total_segment_score, na.rm=T),
  max_total_segment_score=max(total_segment_score, na.rm=T), 
  median_total_segment_score=median(total_segment_score, na.rm=T))

## `summarise()` regrouping output by 'name' (override with `.groups` argument)

skating_total_segment_score %>% arrange(desc(mean_total_segment_score))

## # A tibble: 107 x 9
## # Groups:   name [107]
##    name  nation mean_total_segm… sd_total_segmen…     n se_total_segmen…
##    <chr> <chr>             <dbl>            <dbl> <int>            <dbl>
##  1 HANY… JPN                168.             47.1    30             8.60
##  2 FERN… ESP                162.             44.9    30             8.19
##  3 JIN … CHN                158.             45.4    30             8.29
##  4 RIPP… USA                151.             36.9    48             5.32
##  5 ZHOU… USA                149.             53.6    30             9.79
##  6 UNO … JPN                146.             49.6    42             7.65
##  7 ALIE… OAR                141.             34.7    30             6.33
##  8 CHAN… CAN                140.             45.0    60             5.81
##  9 CHEN… USA                139.             66.9    42            10.3 
## 10 ZAGI… OAR                138.             33.1    46             4.87
## # … with 97 more rows, and 3 more variables: min_total_segment_score <dbl>,
## #   max_total_segment_score <dbl>, median_total_segment_score <dbl>

skating_total_component_score <- skating %>% group_by(name, nation) %>%
  summarize(mean_total_component_score=mean(total_component_score, na.rm=T), 
  sd_total_component_score=sd(total_component_score, na.rm=T), n=n(), 
  se_total_component_score=sd_total_component_score/sqrt(n), 
  min_total_component_score=min(total_component_score, na.rm=T),
  max_total_component_score=max(total_component_score, na.rm=T),
  median_total_component_score=median(total_component_score, na.rm=T))

## `summarise()` regrouping output by 'name' (override with `.groups` argument)

skating_total_component_score %>% arrange(desc(mean_total_component_score))

## # A tibble: 107 x 9
## # Groups:   name [107]
##    name  nation mean_total_comp… sd_total_compon…     n se_total_compon…
##    <chr> <chr>             <dbl>            <dbl> <int>            <dbl>
##  1 HANY… JPN                77.4             24.0    30             4.38
##  2 FERN… ESP                76.8             24.1    30             4.40
##  3 RIPP… USA                76.0             19.0    48             2.74
##  4 CHAN… CAN                73.7             23.2    60             3.00
##  5 TANA… JPN                69.6             16.9    48             2.44
##  6 KOLY… OAR                69.5             21.7    60             2.80
##  7 JIN … CHN                68.7             21.3    30             3.89
##  8 GE M… UZB                68.5             21.9    30             4.00
##  9 ALIE… OAR                67.9             21.5    30             3.92
## 10 MESS… CAN                67.5             22.3    30             4.08
## # … with 97 more rows, and 3 more variables: min_total_component_score <dbl>,
## #   max_total_component_score <dbl>, median_total_component_score <dbl>

skating_total_element_score <- skating %>% group_by(name, nation) %>%
  summarize(mean_total_element_score=mean(total_element_score, na.rm=T), 
  sd_total_element_score=sd(total_element_score, na.rm=T), n=n(), 
  se_total_element_score=sd_total_element_score/sqrt(n), 
  min_total_element_score=min(total_element_score, na.rm=T),
  max_total_element_score=max(total_element_score, na.rm=T), 
  median_total_element_score=median(total_element_score, na.rm=T))

## `summarise()` regrouping output by 'name' (override with `.groups` argument)

skating_total_element_score %>% arrange(desc(max_total_element_score))

## # A tibble: 107 x 9
## # Groups:   name [107]
##    name  nation mean_total_elem… sd_total_elemen…     n se_total_elemen…
##    <chr> <chr>             <dbl>            <dbl> <int>            <dbl>
##  1 CHEN… USA                77.3             44.1    42             6.81
##  2 ZHOU… USA                86.7             31.8    30             5.80
##  3 UNO … JPN                80.4             26.9    42             4.15
##  4 JIN … CHN                89.9             24.6    30             4.50
##  5 HANY… JPN                91.0             23.1    30             4.22
##  6 FERN… ESP                84.8             20.8    30             3.80
##  7 KOLY… OAR                69.5             25.5    60             3.30
##  8 BYCH… ISR                64.2             21.8    42             3.37
##  9 SAMO… ISR                70.7             22.8    30             4.16
## 10 CHAN… CAN                67.5             21.4    60             2.76
## # … with 97 more rows, and 3 more variables: min_total_element_score <dbl>,
## #   max_total_element_score <dbl>, median_total_element_score <dbl>

skating_total_deductions <- skating %>% group_by(starting_number) %>%
  summarize(mean_total_deductions=mean(total_deductions, na.rm=T), 
  sd_total_deductions=sd(total_deductions, na.rm=T), n=n(), 
  se_total_deductions=sd_total_deductions/sqrt(n), 
  min_total_deductions=min(total_deductions, na.rm=T),
  max_total_deductions=max(total_deductions, na.rm=T), 
  median_total_deductions=median(total_deductions, na.rm=T))

## `summarise()` ungrouping output (override with `.groups` argument)

skating_total_deductions %>% head(30)

## # A tibble: 30 x 8
##    starting_number mean_total_dedu… sd_total_deduct…     n se_total_deduct…
##              <dbl>            <dbl>            <dbl> <int>            <dbl>
##  1               1           -0.543            0.641   223           0.0430
##  2               2           -0.312            0.569   224           0.0380
##  3               3           -0.259            0.548   224           0.0366
##  4               4           -0.321            0.572   224           0.0382
##  5               5           -0.478            0.642   224           0.0429
##  6               6           -1.16             2.01    158           0.160 
##  7               7           -0.443            0.633   158           0.0504
##  8               8           -0.538            0.683   158           0.0543
##  9               9           -0.304            0.605   158           0.0481
## 10              10           -0.139            0.347   158           0.0276
## # … with 20 more rows, and 3 more variables: min_total_deductions <dbl>,
## #   max_total_deductions <dbl>, median_total_deductions <dbl>
…
skating %>% filter(nation=="USA") %>%
  select(name, elements, scores_of_panel) %>%
  arrange(desc(scores_of_panel))

## # A tibble: 390 x 3
##    name         elements   scores_of_panel
##    <chr>        <chr>                <dbl>
##  1 ZHOU Vincent 4Lz+3T                19.0
##  2 CHEN Nathan  4T+3T                 17.6
##  3 ZHOU Vincent 4Lz+3T<               15.6
##  4 CHEN Nathan  4Lz                   15.2
##  5 CHEN Nathan  4F+2T                 14.9
##  6 ZHOU Vincent 3Lz+1Lo+3F            13.7
##  7 RIPPON Adam  3A+2T+2Lo             13.5
##  8 CHEN Nathan  4F+2T                 13.4
##  9 CHEN Nathan  4S                    13.4
## 10 CHEN Nathan  4T                    13.0
## # … with 380 more rows
…
I wanted to see which figure skater, who receive a gold medal, had the highest mean total program score. Patrick Chan had the highest mean total program score of 179.75.

skating %>% mutate(score_percentil = ntile(total_segment_score,100))

## # A tibble: 3,405 x 20
##    aspect_id performance_id info_flag credit_flag base_value   goe
##    <chr>     <chr>          <chr>     <chr>            <dbl> <dbl>
##  1 004e3826… 648ff2cbff     <NA>      <NA>               5.8  0.8 
##  2 005bdf45… 5458eddc1d     <NA>      <NA>               8.2 -2.71
##  3 0070f9cc… c39eade62e     <NA>      <NA>              NA   NA   
##  4 0071f2e3… cb67dacba3     <NA>      <NA>              NA   NA   
##  5 007ae3fc… 9e771ce55d     <NA>      <NA>               6.6  1.9 
##  6 00908aac… 63dab89053     <NA>      <NA>               7.5  0.7 
##  7 00a916f3… 47f9e8d8ec     <NA>      x                 12.8  0.71
##  8 00abadf6… 80c4a7d391     <NA>      <NA>               4.5  1.71
##  9 00b8614c… c39eade62e     <NA>      <NA>               3.5  0.4 
## 10 00c4da6e… 8b28eadc1f     <NA>      <NA>              NA   NA   
## # … with 3,395 more rows, and 14 more variables: scores_of_panel <dbl>,
## #   elements <chr>, components <chr>, discipline <chr>, program <chr>,
## #   name <chr>, nation <chr>, rank <dbl>, starting_number <dbl>,
## #   total_segment_score <dbl>, total_element_score <dbl>,
## #   total_component_score <dbl>, total_deductions <dbl>, score_percentil <int>
…
